…
``` r
series_data 
#> # A tibble: 3,690 x 3
#>          date RESBME_N.D RESBMS_N.D
#>        <date>      <dbl>      <dbl>
#>  1 2008-10-09       0.75        1.4
#>  2 2008-10-10       0.75        1.4
#>  3 2008-10-11       0.75        1.4
#>  4 2008-10-12       0.75        1.4
#>  5 2008-10-13       0.75        1.4
#>  6 2008-10-14       0.75        1.4
#>  7 2008-10-15       0.75        1.4
#>  8 2008-10-16       0.75        1.4
#>  9 2008-10-17       0.75        1.4
#> 10 2008-10-18       0.75        1.4
#> # ... with 3,680 more rows
```
